module gitlab.com/climactech/dependency-resolver

go 1.21

require (
	github.com/cucumber/godog v0.13.0
	github.com/orcaman/concurrent-map/v2 v2.0.1
	golang.org/x/exp v0.0.0-20231206192017-f3f8817b8deb
)

require (
	github.com/cucumber/gherkin/go/v26 v26.2.0 // indirect
	github.com/cucumber/messages/go/v21 v21.0.1 // indirect
	github.com/gofrs/uuid v4.3.1+incompatible // indirect
	github.com/hashicorp/go-immutable-radix v1.3.1 // indirect
	github.com/hashicorp/go-memdb v1.3.4 // indirect
	github.com/hashicorp/golang-lru v0.5.4 // indirect
	github.com/spf13/pflag v1.0.5 // indirect
)
